…
Dataset consist of monthly demand for electrical supply for 12 European
countries collected between 1990 and 2003.

Let’s change table format from wide to long and visualize demand.

``` r
(elecsupply <- data %>%
  gather(country, elec_demand, Belgium:UK) %>%
  mutate(date = as_date(date, format = '%d.%m.%Y')) %>%
  relocate(country)
)
```

    ## # A tibble: 2,076 x 3
    ##    country date       elec_demand
    ##    <chr>   <date>           <dbl>
    ##  1 Belgium 1990-01-01        6287
    ##  2 Belgium 1990-02-01        5546
    ##  3 Belgium 1990-03-01        5975
    ##  4 Belgium 1990-04-01        5461
    ##  5 Belgium 1990-05-01        5272
    ##  6 Belgium 1990-06-01        5171
    ##  7 Belgium 1990-07-01        4735
    ##  8 Belgium 1990-08-01        5132
    ##  9 Belgium 1990-09-01        5293
    ## 10 Belgium 1990-10-01        5869
    ## # ... with 2,066 more rows
…
To get inside nested data we can use unnest() function from tidyr
library. Example is shown below. I encourage to also run commented code
to see the difference in output.

``` r
nested_data_tbl %>%
  filter(country == 'Denmark') %>%
  unnest(.actual_data) %>%
  select(country:elec_demand)
```

    ## # A tibble: 173 x 3
    ##    country date       elec_demand
    ##    <chr>   <date>           <dbl>
    ##  1 Denmark 1990-01-01        3166
    ##  2 Denmark 1990-02-01        2737
    ##  3 Denmark 1990-03-01        2906
    ##  4 Denmark 1990-04-01        2550
    ##  5 Denmark 1990-05-01        2532
    ##  6 Denmark 1990-06-01        2398
    ##  7 Denmark 1990-07-01        2116
    ##  8 Denmark 1990-08-01        2635
    ##  9 Denmark 1990-09-01        2587
    ## 10 Denmark 1990-10-01        2850
    ## # ... with 163 more rows
…
``` r
rec_xgb <- recipe(elec_demand ~ ., extract_nested_train_split(nested_data_tbl)) %>%
  step_timeseries_signature(date) %>% # create dummy calendar features based on date
  step_rm(date) %>% # remove date column - not require anymore
  step_zv(all_predictors()) %>% # remove zero value predictors (if there are any)
  step_dummy(all_nominal(), one_hot = TRUE) # dummy predictors that are character data
```

We can check our recipe using bake() formula.

``` r
bake(prep(rec_xgb), extract_nested_train_split(nested_data_tbl))
```

    ## # A tibble: 149 x 37
    ##    elec_demand date_index.num date_year date_year.iso date_half
    ##          <dbl>          <dbl>     <int>         <int>     <int>
    ##  1        6287      631152000      1990          1990         1
    ##  2        5546      633830400      1990          1990         1
    ##  3        5975      636249600      1990          1990         1
    ##  4        5461      638928000      1990          1990         1
    ##  5        5272      641520000      1990          1990         1
    ##  6        5171      644198400      1990          1990         1
    ##  7        4735      646790400      1990          1990         2
    ##  8        5132      649468800      1990          1990         2
    ##  9        5293      652147200      1990          1990         2
    ## 10        5869      654739200      1990          1990         2
    ## # ... with 139 more rows, and 32 more variables: date_quarter <int>,
    ## #   date_month <int>, date_month.xts <int>, date_wday <int>,
    ## #   date_wday.xts <int>, date_qday <int>, date_yday <int>,
    ## #   date_mweek <int>, date_week <int>, date_week.iso <int>,
    ## #   date_week2 <int>, date_week3 <int>, date_week4 <int>,
    ## #   date_month.lbl_01 <dbl>, date_month.lbl_02 <dbl>,
    ## #   date_month.lbl_03 <dbl>, date_month.lbl_04 <dbl>, ...
…
